{
    "monsters":[
        {
            "name":"Orc",
            "Description":"Orc",
            "char":"o",
            "hp":12,
            "defense":25,
            "atkBonus":0,
            "phBonus":0,
            "ability_scores":[
                {
                    "dexterity":1
                }
            ],
            "xp":105,
            "spawn_chance":[[80, 1], [50, 2]],
            "ai":"BasicMonster"
        },
        {
            "name":"Troll",
            "Description":"A monster that slowly heals It's wounds",
            "char":"T",
            "hp":18,
            "defense":35,
            "atkBonus":3,
            "phBonus":1,
            "ability_scores":[
                {
                    "constitution":10
                }
            ],
            "xp":150,
            "spawn_chance":[[15, 3], [30, 5], [60, 7]],
            "ai":"BasicMonster"
        },
        {
            "name":"Ogre",
            "Description":"Large hulking beast with a massive tree trunk as the weapon",
            "char":"O",
            "hp":50,
            "defense":30,
            "atkBonus":0,
            "phBonus":0,
            "ability_scores":[
                {
                    "strength":6
                },
                {
                    "constitution":3
                },
                {
                    "dexterity":3
                }
            ],
            "xp":300,
            "spawn_chance":[[33, 5], [39, 6], [40, 10]],
            "ai":"BasicMonster"
        },
        {
            "name":"Ogre boss",
            "Description":"A massive Ogre, you can smell the putrid aura around him",
            "char":"O",
            "hp":330,
            "defense":33,
            "atkBonus":0,
            "phBonus":0,
            "ability_scores":[
                {
                    "constitution":12
                },
                {
                    "strength":9
                }
            ],
            "xp":800,
            "spawn_chance":[[10, 5], [10, 6]],  
            "ai":"BasicMonster"
        }
    ]
}
